%!PS-Adobe-2.0 EPSF-2.0
%%Title: /home/oddan/ownCloud/matmora/seminars, conferences and workshops/Trondheim CCS Conference 2015/figs/Workflow.dia
%%Creator: Dia v0.97.2
%%CreationDate: Tue Dec  8 10:52:52 2015
%%For: oddan
%%Orientation: Portrait
%%Magnification: 1.0000
%%BoundingBox: 0 0 1465 1332
%%BeginSetup
%%EndSetup
%%EndComments
%%BeginProlog
[ /.notdef /.notdef /.notdef /.notdef /.notdef /.notdef /.notdef /.notdef /.notdef /.notdef
/.notdef /.notdef /.notdef /.notdef /.notdef /.notdef /.notdef /.notdef /.notdef /.notdef
/.notdef /.notdef /.notdef /.notdef /.notdef /.notdef /.notdef /.notdef /.notdef /.notdef
/.notdef /.notdef /space /exclam /quotedbl /numbersign /dollar /percent /ampersand /quoteright
/parenleft /parenright /asterisk /plus /comma /hyphen /period /slash /zero /one
/two /three /four /five /six /seven /eight /nine /colon /semicolon
/less /equal /greater /question /at /A /B /C /D /E
/F /G /H /I /J /K /L /M /N /O
/P /Q /R /S /T /U /V /W /X /Y
/Z /bracketleft /backslash /bracketright /asciicircum /underscore /quoteleft /a /b /c
/d /e /f /g /h /i /j /k /l /m
/n /o /p /q /r /s /t /u /v /w
/x /y /z /braceleft /bar /braceright /asciitilde /.notdef /.notdef /.notdef
/.notdef /.notdef /.notdef /.notdef /.notdef /.notdef /.notdef /.notdef /.notdef /.notdef
/.notdef /.notdef /.notdef /.notdef /.notdef /.notdef /.notdef /.notdef /.notdef /.notdef
/.notdef /.notdef /.notdef /.notdef /.notdef /.notdef /.notdef /.notdef /.notdef /.notdef
/space /exclamdown /cent /sterling /currency /yen /brokenbar /section /dieresis /copyright
/ordfeminine /guillemotleft /logicalnot /hyphen /registered /macron /degree /plusminus /twosuperior /threesuperior
/acute /mu /paragraph /periodcentered /cedilla /onesuperior /ordmasculine /guillemotright /onequarter /onehalf
/threequarters /questiondown /Agrave /Aacute /Acircumflex /Atilde /Adieresis /Aring /AE /Ccedilla
/Egrave /Eacute /Ecircumflex /Edieresis /Igrave /Iacute /Icircumflex /Idieresis /Eth /Ntilde
/Ograve /Oacute /Ocircumflex /Otilde /Odieresis /multiply /Oslash /Ugrave /Uacute /Ucircumflex
/Udieresis /Yacute /Thorn /germandbls /agrave /aacute /acircumflex /atilde /adieresis /aring
/ae /ccedilla /egrave /eacute /ecircumflex /edieresis /igrave /iacute /icircumflex /idieresis
/eth /ntilde /ograve /oacute /ocircumflex /otilde /odieresis /divide /oslash /ugrave
/uacute /ucircumflex /udieresis /yacute /thorn /ydieresis] /isolatin1encoding exch def
/cp {closepath} bind def
/c {curveto} bind def
/f {fill} bind def
/a {arc} bind def
/ef {eofill} bind def
/ex {exch} bind def
/gr {grestore} bind def
/gs {gsave} bind def
/sa {save} bind def
/rs {restore} bind def
/l {lineto} bind def
/m {moveto} bind def
/rm {rmoveto} bind def
/n {newpath} bind def
/s {stroke} bind def
/sh {show} bind def
/slc {setlinecap} bind def
/slj {setlinejoin} bind def
/slw {setlinewidth} bind def
/srgb {setrgbcolor} bind def
/rot {rotate} bind def
/sc {scale} bind def
/sd {setdash} bind def
/ff {findfont} bind def
/sf {setfont} bind def
/scf {scalefont} bind def
/sw {stringwidth pop} bind def
/tr {translate} bind def

/ellipsedict 8 dict def
ellipsedict /mtrx matrix put
/ellipse
{ ellipsedict begin
   /endangle exch def
   /startangle exch def
   /yrad exch def
   /xrad exch def
   /y exch def
   /x exch def   /savematrix mtrx currentmatrix def
   x y tr xrad yrad sc
   0 0 1 startangle endangle arc
   savematrix setmatrix
   end
} def

/mergeprocs {
dup length
3 -1 roll
dup
length
dup
5 1 roll
3 -1 roll
add
array cvx
dup
3 -1 roll
0 exch
putinterval
dup
4 2 roll
putinterval
} bind def
/Times-Roman-latin1
    /Times-Roman findfont
    dup length dict begin
	{1 index /FID ne {def} {pop pop} ifelse} forall
	/Encoding isolatin1encoding def
    currentdict end
definefont pop
/Times-Italic-latin1
    /Times-Italic findfont
    dup length dict begin
	{1 index /FID ne {def} {pop pop} ifelse} forall
	/Encoding isolatin1encoding def
    currentdict end
definefont pop
/Times-Bold-latin1
    /Times-Bold findfont
    dup length dict begin
	{1 index /FID ne {def} {pop pop} ifelse} forall
	/Encoding isolatin1encoding def
    currentdict end
definefont pop
/Times-BoldItalic-latin1
    /Times-BoldItalic findfont
    dup length dict begin
	{1 index /FID ne {def} {pop pop} ifelse} forall
	/Encoding isolatin1encoding def
    currentdict end
definefont pop
/AvantGarde-Gothic-latin1
    /AvantGarde-Gothic findfont
    dup length dict begin
	{1 index /FID ne {def} {pop pop} ifelse} forall
	/Encoding isolatin1encoding def
    currentdict end
definefont pop
/AvantGarde-BookOblique-latin1
    /AvantGarde-BookOblique findfont
    dup length dict begin
	{1 index /FID ne {def} {pop pop} ifelse} forall
	/Encoding isolatin1encoding def
    currentdict end
definefont pop
/AvantGarde-Demi-latin1
    /AvantGarde-Demi findfont
    dup length dict begin
	{1 index /FID ne {def} {pop pop} ifelse} forall
	/Encoding isolatin1encoding def
    currentdict end
definefont pop
/AvantGarde-DemiOblique-latin1
    /AvantGarde-DemiOblique findfont
    dup length dict begin
	{1 index /FID ne {def} {pop pop} ifelse} forall
	/Encoding isolatin1encoding def
    currentdict end
definefont pop
/Bookman-Light-latin1
    /Bookman-Light findfont
    dup length dict begin
	{1 index /FID ne {def} {pop pop} ifelse} forall
	/Encoding isolatin1encoding def
    currentdict end
definefont pop
/Bookman-LightItalic-latin1
    /Bookman-LightItalic findfont
    dup length dict begin
	{1 index /FID ne {def} {pop pop} ifelse} forall
	/Encoding isolatin1encoding def
    currentdict end
definefont pop
/Bookman-Demi-latin1
    /Bookman-Demi findfont
    dup length dict begin
	{1 index /FID ne {def} {pop pop} ifelse} forall
	/Encoding isolatin1encoding def
    currentdict end
definefont pop
/Bookman-DemiItalic-latin1
    /Bookman-DemiItalic findfont
    dup length dict begin
	{1 index /FID ne {def} {pop pop} ifelse} forall
	/Encoding isolatin1encoding def
    currentdict end
definefont pop
/Courier-latin1
    /Courier findfont
    dup length dict begin
	{1 index /FID ne {def} {pop pop} ifelse} forall
	/Encoding isolatin1encoding def
    currentdict end
definefont pop
/Courier-Oblique-latin1
    /Courier-Oblique findfont
    dup length dict begin
	{1 index /FID ne {def} {pop pop} ifelse} forall
	/Encoding isolatin1encoding def
    currentdict end
definefont pop
/Courier-Bold-latin1
    /Courier-Bold findfont
    dup length dict begin
	{1 index /FID ne {def} {pop pop} ifelse} forall
	/Encoding isolatin1encoding def
    currentdict end
definefont pop
/Courier-BoldOblique-latin1
    /Courier-BoldOblique findfont
    dup length dict begin
	{1 index /FID ne {def} {pop pop} ifelse} forall
	/Encoding isolatin1encoding def
    currentdict end
definefont pop
/Helvetica-latin1
    /Helvetica findfont
    dup length dict begin
	{1 index /FID ne {def} {pop pop} ifelse} forall
	/Encoding isolatin1encoding def
    currentdict end
definefont pop
/Helvetica-Oblique-latin1
    /Helvetica-Oblique findfont
    dup length dict begin
	{1 index /FID ne {def} {pop pop} ifelse} forall
	/Encoding isolatin1encoding def
    currentdict end
definefont pop
/Helvetica-Bold-latin1
    /Helvetica-Bold findfont
    dup length dict begin
	{1 index /FID ne {def} {pop pop} ifelse} forall
	/Encoding isolatin1encoding def
    currentdict end
definefont pop
/Helvetica-BoldOblique-latin1
    /Helvetica-BoldOblique findfont
    dup length dict begin
	{1 index /FID ne {def} {pop pop} ifelse} forall
	/Encoding isolatin1encoding def
    currentdict end
definefont pop
/Helvetica-Narrow-latin1
    /Helvetica-Narrow findfont
    dup length dict begin
	{1 index /FID ne {def} {pop pop} ifelse} forall
	/Encoding isolatin1encoding def
    currentdict end
definefont pop
/Helvetica-Narrow-Oblique-latin1
    /Helvetica-Narrow-Oblique findfont
    dup length dict begin
	{1 index /FID ne {def} {pop pop} ifelse} forall
	/Encoding isolatin1encoding def
    currentdict end
definefont pop
/Helvetica-Narrow-Bold-latin1
    /Helvetica-Narrow-Bold findfont
    dup length dict begin
	{1 index /FID ne {def} {pop pop} ifelse} forall
	/Encoding isolatin1encoding def
    currentdict end
definefont pop
/Helvetica-Narrow-BoldOblique-latin1
    /Helvetica-Narrow-BoldOblique findfont
    dup length dict begin
	{1 index /FID ne {def} {pop pop} ifelse} forall
	/Encoding isolatin1encoding def
    currentdict end
definefont pop
/NewCenturySchlbk-Roman-latin1
    /NewCenturySchlbk-Roman findfont
    dup length dict begin
	{1 index /FID ne {def} {pop pop} ifelse} forall
	/Encoding isolatin1encoding def
    currentdict end
definefont pop
/NewCenturySchlbk-Italic-latin1
    /NewCenturySchlbk-Italic findfont
    dup length dict begin
	{1 index /FID ne {def} {pop pop} ifelse} forall
	/Encoding isolatin1encoding def
    currentdict end
definefont pop
/NewCenturySchlbk-Bold-latin1
    /NewCenturySchlbk-Bold findfont
    dup length dict begin
	{1 index /FID ne {def} {pop pop} ifelse} forall
	/Encoding isolatin1encoding def
    currentdict end
definefont pop
/NewCenturySchlbk-BoldItalic-latin1
    /NewCenturySchlbk-BoldItalic findfont
    dup length dict begin
	{1 index /FID ne {def} {pop pop} ifelse} forall
	/Encoding isolatin1encoding def
    currentdict end
definefont pop
/Palatino-Roman-latin1
    /Palatino-Roman findfont
    dup length dict begin
	{1 index /FID ne {def} {pop pop} ifelse} forall
	/Encoding isolatin1encoding def
    currentdict end
definefont pop
/Palatino-Italic-latin1
    /Palatino-Italic findfont
    dup length dict begin
	{1 index /FID ne {def} {pop pop} ifelse} forall
	/Encoding isolatin1encoding def
    currentdict end
definefont pop
/Palatino-Bold-latin1
    /Palatino-Bold findfont
    dup length dict begin
	{1 index /FID ne {def} {pop pop} ifelse} forall
	/Encoding isolatin1encoding def
    currentdict end
definefont pop
/Palatino-BoldItalic-latin1
    /Palatino-BoldItalic findfont
    dup length dict begin
	{1 index /FID ne {def} {pop pop} ifelse} forall
	/Encoding isolatin1encoding def
    currentdict end
definefont pop
/Symbol-latin1
    /Symbol findfont
definefont pop
/ZapfChancery-MediumItalic-latin1
    /ZapfChancery-MediumItalic findfont
    dup length dict begin
	{1 index /FID ne {def} {pop pop} ifelse} forall
	/Encoding isolatin1encoding def
    currentdict end
definefont pop
/ZapfDingbats-latin1
    /ZapfDingbats findfont
    dup length dict begin
	{1 index /FID ne {def} {pop pop} ifelse} forall
	/Encoding isolatin1encoding def
    currentdict end
definefont pop
28.346000 -28.346000 scale
-32.965000 -47.930100 translate
%%EndProlog


0.913725 0.905882 1.000000 srgb
n 51.610000 1.055000 m 51.610000 22.905000 l 66.060000 22.905000 l 66.060000 1.055000 l f
n 51.610000 1.555000 m 51.610000 1.555000 0.500000 0.500000 180.000000 270.000000 ellipse f
n 66.060000 1.555000 m 66.060000 1.555000 0.500000 0.500000 270.000000 360.000000 ellipse f
n 51.110000 1.555000 m 51.110000 22.405000 l 66.560000 22.405000 l 66.560000 1.555000 l f
n 51.610000 22.405000 m 51.610000 22.405000 0.500000 0.500000 90.000000 180.000000 ellipse f
n 66.060000 22.405000 m 66.060000 22.405000 0.500000 0.500000 0.000000 90.000000 ellipse f
0.100000 slw
[] 0 sd
[] 0 sd
0 slj
0.000000 0.000000 0.000000 srgb
n 51.610000 1.055000 m 66.060000 1.055000 l s
n 51.610000 22.905000 m 66.060000 22.905000 l s
n 51.610000 1.555000 0.500000 0.500000 180.000000 270.000000 ellipse s
n 66.060000 1.555000 0.500000 0.500000 270.000000 360.000000 ellipse s
n 51.110000 1.555000 m 51.110000 22.405000 l s
n 66.560000 1.555000 m 66.560000 22.405000 l s
n 51.610000 22.405000 0.500000 0.500000 90.000000 180.000000 ellipse s
n 66.060000 22.405000 0.500000 0.500000 0.000000 90.000000 ellipse s
/Helvetica-latin1 ff 0.560000 scf sf
0.835294 0.960784 0.988235 srgb
n 69.589000 1.083490 m 69.589000 22.933490 l 84.039000 22.933490 l 84.039000 1.083490 l f
n 69.589000 1.583490 m 69.589000 1.583490 0.500000 0.500000 180.000000 270.000000 ellipse f
n 84.039000 1.583490 m 84.039000 1.583490 0.500000 0.500000 270.000000 360.000000 ellipse f
n 69.089000 1.583490 m 69.089000 22.433490 l 84.539000 22.433490 l 84.539000 1.583490 l f
n 69.589000 22.433490 m 69.589000 22.433490 0.500000 0.500000 90.000000 180.000000 ellipse f
n 84.039000 22.433490 m 84.039000 22.433490 0.500000 0.500000 0.000000 90.000000 ellipse f
0.100000 slw
[] 0 sd
[] 0 sd
0 slj
0.000000 0.000000 0.000000 srgb
n 69.589000 1.083490 m 84.039000 1.083490 l s
n 69.589000 22.933490 m 84.039000 22.933490 l s
n 69.589000 1.583490 0.500000 0.500000 180.000000 270.000000 ellipse s
n 84.039000 1.583490 0.500000 0.500000 270.000000 360.000000 ellipse s
n 69.089000 1.583490 m 69.089000 22.433490 l s
n 84.539000 1.583490 m 84.539000 22.433490 l s
n 69.589000 22.433490 0.500000 0.500000 90.000000 180.000000 ellipse s
n 84.039000 22.433490 0.500000 0.500000 0.000000 90.000000 ellipse s
/Helvetica-latin1 ff 0.560000 scf sf
1.000000 0.960784 0.772549 srgb
n 51.692500 26.030100 m 51.692500 47.880100 l 66.142500 47.880100 l 66.142500 26.030100 l f
n 51.692500 26.530100 m 51.692500 26.530100 0.500000 0.500000 180.000000 270.000000 ellipse f
n 66.142500 26.530100 m 66.142500 26.530100 0.500000 0.500000 270.000000 360.000000 ellipse f
n 51.192500 26.530100 m 51.192500 47.380100 l 66.642500 47.380100 l 66.642500 26.530100 l f
n 51.692500 47.380100 m 51.692500 47.380100 0.500000 0.500000 90.000000 180.000000 ellipse f
n 66.142500 47.380100 m 66.142500 47.380100 0.500000 0.500000 0.000000 90.000000 ellipse f
0.100000 slw
[] 0 sd
[] 0 sd
0 slj
0.000000 0.000000 0.000000 srgb
n 51.692500 26.030100 m 66.142500 26.030100 l s
n 51.692500 47.880100 m 66.142500 47.880100 l s
n 51.692500 26.530100 0.500000 0.500000 180.000000 270.000000 ellipse s
n 66.142500 26.530100 0.500000 0.500000 270.000000 360.000000 ellipse s
n 51.192500 26.530100 m 51.192500 47.380100 l s
n 66.642500 26.530100 m 66.642500 47.380100 l s
n 51.692500 47.380100 0.500000 0.500000 90.000000 180.000000 ellipse s
n 66.142500 47.380100 0.500000 0.500000 0.000000 90.000000 ellipse s
/Helvetica-latin1 ff 0.560000 scf sf
1.000000 0.843137 0.854902 srgb
n 69.612500 25.985100 m 69.612500 47.835100 l 84.062500 47.835100 l 84.062500 25.985100 l f
n 69.612500 26.485100 m 69.612500 26.485100 0.500000 0.500000 180.000000 270.000000 ellipse f
n 84.062500 26.485100 m 84.062500 26.485100 0.500000 0.500000 270.000000 360.000000 ellipse f
n 69.112500 26.485100 m 69.112500 47.335100 l 84.562500 47.335100 l 84.562500 26.485100 l f
n 69.612500 47.335100 m 69.612500 47.335100 0.500000 0.500000 90.000000 180.000000 ellipse f
n 84.062500 47.335100 m 84.062500 47.335100 0.500000 0.500000 0.000000 90.000000 ellipse f
0.100000 slw
[] 0 sd
[] 0 sd
0 slj
0.000000 0.000000 0.000000 srgb
n 69.612500 25.985100 m 84.062500 25.985100 l s
n 69.612500 47.835100 m 84.062500 47.835100 l s
n 69.612500 26.485100 0.500000 0.500000 180.000000 270.000000 ellipse s
n 84.062500 26.485100 0.500000 0.500000 270.000000 360.000000 ellipse s
n 69.112500 26.485100 m 69.112500 47.335100 l s
n 84.562500 26.485100 m 84.562500 47.335100 l s
n 69.612500 47.335100 0.500000 0.500000 90.000000 180.000000 ellipse s
n 84.062500 47.335100 0.500000 0.500000 0.000000 90.000000 ellipse s
/Helvetica-latin1 ff 0.560000 scf sf
1.000000 0.949020 1.000000 srgb
n 33.515000 1.005000 m 33.515000 22.855000 l 47.965000 22.855000 l 47.965000 1.005000 l f
n 33.515000 1.505000 m 33.515000 1.505000 0.500000 0.500000 180.000000 270.000000 ellipse f
n 47.965000 1.505000 m 47.965000 1.505000 0.500000 0.500000 270.000000 360.000000 ellipse f
n 33.015000 1.505000 m 33.015000 22.355000 l 48.465000 22.355000 l 48.465000 1.505000 l f
n 33.515000 22.355000 m 33.515000 22.355000 0.500000 0.500000 90.000000 180.000000 ellipse f
n 47.965000 22.355000 m 47.965000 22.355000 0.500000 0.500000 0.000000 90.000000 ellipse f
0.100000 slw
[] 0 sd
[] 0 sd
0 slj
0.000000 0.000000 0.000000 srgb
n 33.515000 1.005000 m 47.965000 1.005000 l s
n 33.515000 22.855000 m 47.965000 22.855000 l s
n 33.515000 1.505000 0.500000 0.500000 180.000000 270.000000 ellipse s
n 47.965000 1.505000 0.500000 0.500000 270.000000 360.000000 ellipse s
n 33.015000 1.505000 m 33.015000 22.355000 l s
n 48.465000 1.505000 m 48.465000 22.355000 l s
n 33.515000 22.355000 0.500000 0.500000 90.000000 180.000000 ellipse s
n 47.965000 22.355000 0.500000 0.500000 0.000000 90.000000 ellipse s
/Helvetica-latin1 ff 0.560000 scf sf
/Helvetica-latin1 ff 0.740833 scf sf
(1) dup sw 2 div 34.487500 ex sub 2.219583 m
 gs 1 -1 sc sh gr
/Helvetica-latin1 ff 0.560000 scf sf
/Helvetica-latin1 ff 0.560000 scf sf
0.100000 slw
[] 0 sd
[] 0 sd
0 slc
0 slj
0.100000 slw
0 slc
0 slj
[] 0 sd
1.000000 1.000000 1.000000 srgb
n 34.487500 2.137500 0.737500 0.737500 0 360 ellipse f
0.000000 0.000000 0.000000 srgb
n 34.487500 2.137500 0.737500 0.737500 0 360 ellipse cp s
0 slc
0 slj
[] 0 sd
n 34.487500 2.137500 0.737500 0.737500 0 360 ellipse cp s
/Helvetica-Bold-latin1 ff 0.740833 scf sf
(Preprocessing) dup sw 2 div 39.225000 ex sub 2.282083 m
 gs 1 -1 sc sh gr
/Helvetica-Bold-latin1 ff 0.740833 scf sf
(1) dup sw 2 div 34.487500 ex sub 2.219583 m
 gs 1 -1 sc sh gr
0.100000 slw
[] 0 sd
[] 0 sd
0 slc
0 slj
0.100000 slw
0 slc
0 slj
[] 0 sd
1.000000 1.000000 1.000000 srgb
n 70.594324 2.309784 0.721124 0.721124 0 360 ellipse f
0.000000 0.000000 0.000000 srgb
n 70.594324 2.309784 0.721124 0.721124 0 360 ellipse cp s
0 slc
0 slj
[] 0 sd
n 70.594324 2.309784 0.721124 0.721124 0 360 ellipse cp s
/Helvetica-Bold-latin1 ff 0.740833 scf sf
(Capacity assessment) dup sw 2 div 76.914000 ex sub 2.490593 m
 gs 1 -1 sc sh gr
0.100000 slw
[] 0 sd
[] 0 sd
0 slc
0 slj
0.100000 slw
0 slc
0 slj
[] 0 sd
1.000000 1.000000 1.000000 srgb
n 52.617500 2.247500 0.737500 0.737500 0 360 ellipse f
0.000000 0.000000 0.000000 srgb
n 52.617500 2.247500 0.737500 0.737500 0 360 ellipse cp s
0 slc
0 slj
[] 0 sd
n 52.617500 2.247500 0.737500 0.737500 0 360 ellipse cp s
/Helvetica-Bold-latin1 ff 0.740833 scf sf
(Geometric analysis) dup sw 2 div 58.535000 ex sub 2.462103 m
 gs 1 -1 sc sh gr
/Helvetica-latin1 ff 0.740833 scf sf
(2) dup sw 2 div 52.617500 ex sub 2.329583 m
 gs 1 -1 sc sh gr
0.100000 slw
[] 0 sd
[] 0 sd
0 slc
0 slj
0.100000 slw
0 slc
0 slj
[] 0 sd
1.000000 1.000000 1.000000 srgb
n 52.635000 46.517600 0.737500 0.737500 0 360 ellipse f
0.000000 0.000000 0.000000 srgb
n 52.635000 46.517600 0.737500 0.737500 0 360 ellipse cp s
0 slc
0 slj
[] 0 sd
n 52.635000 46.517600 0.737500 0.737500 0 360 ellipse cp s
/Helvetica-Bold-latin1 ff 0.740833 scf sf
(Simulation) dup sw 2 div 56.649900 ex sub 46.757383 m
 gs 1 -1 sc sh gr
/Helvetica-latin1 ff 0.740833 scf sf
(4) dup sw 2 div 52.635000 ex sub 46.599683 m
 gs 1 -1 sc sh gr
0.100000 slw
[] 0 sd
[] 0 sd
0 slc
0 slj
0.100000 slw
0 slc
0 slj
[] 0 sd
1.000000 1.000000 1.000000 srgb
n 70.700000 46.472600 0.737500 0.737500 0 360 ellipse f
0.000000 0.000000 0.000000 srgb
n 70.700000 46.472600 0.737500 0.737500 0 360 ellipse cp s
0 slc
0 slj
[] 0 sd
n 70.700000 46.472600 0.737500 0.737500 0 360 ellipse cp s
/Helvetica-Bold-latin1 ff 0.740833 scf sf
(Optimization) dup sw 2 div 75.137500 ex sub 46.617183 m
 gs 1 -1 sc sh gr
/Helvetica-latin1 ff 0.740833 scf sf
(5) dup sw 2 div 70.700000 ex sub 46.554683 m
 gs 1 -1 sc sh gr
/Helvetica-latin1 ff 0.560000 scf sf
/Helvetica-latin1 ff 0.560000 scf sf
/Helvetica-latin1 ff 0.560000 scf sf
/Helvetica-latin1 ff 0.560000 scf sf
/Helvetica-latin1 ff 0.740833 scf sf
(3) dup sw 2 div 70.594300 ex sub 2.391873 m
 gs 1 -1 sc sh gr
/Helvetica-latin1 ff 0.560000 scf sf
/Helvetica-latin1 ff 0.560000 scf sf
/Helvetica-latin1 ff 0.560000 scf sf
/Helvetica-latin1 ff 0.560000 scf sf
1.000000 1.000000 0.678431 srgb
n 34.837200 4.868380 m 34.837200 8.085047 l 46.834700 8.085047 l 46.834700 4.868380 l f
0.100000 slw
[] 0 sd
[] 0 sd
0 slj
0.792157 0.792157 0.000000 srgb
n 34.837200 4.868380 m 34.837200 8.085047 l 46.834700 8.085047 l 46.834700 4.868380 l cp s
/Helvetica-latin1 ff 0.740833 scf sf
0.000000 0.000000 0.000000 srgb
(Industry standard 3D grid) dup sw 2 div 40.835950 ex sub 6.523380 m
 gs 1 -1 sc sh gr
0.100000 slw
[] 0 sd
[] 0 sd
0 slc
0 slj
0.100000 slw
0 slc
0 slj
[] 0 sd
0.784314 1.000000 0.784314 srgb
n 36.720946 10.631200 m 44.882731 10.631200 l 46.009639 10.631200 46.923178 11.838165 46.923178 13.327033 c 46.923178 14.815901 46.009639 16.022866 44.882731 16.022866 c 36.720946 16.022866 l 35.594038 16.022866 34.680500 14.815901 34.680500 13.327033 c 34.680500 11.838165 35.594038 10.631200 36.720946 10.631200 c ef
0.000000 0.501961 0.000000 srgb
n 36.720946 10.631200 m 44.882731 10.631200 l 46.009639 10.631200 46.923178 11.838165 46.923178 13.327033 c 46.923178 14.815901 46.009639 16.022866 44.882731 16.022866 c 36.720946 16.022866 l 35.594038 16.022866 34.680500 14.815901 34.680500 13.327033 c 34.680500 11.838165 35.594038 10.631200 36.720946 10.631200 c s
/Helvetica-latin1 ff 0.740833 scf sf
0.000000 0.000000 0.000000 srgb
(Reading and) dup sw 2 div 40.801839 ex sub 12.321617 m
 gs 1 -1 sc sh gr
(conversion to) dup sw 2 div 40.801839 ex sub 13.379950 m
 gs 1 -1 sc sh gr
(top surface grid) dup sw 2 div 40.801839 ex sub 14.438283 m
 gs 1 -1 sc sh gr
/Helvetica-latin1 ff 0.560000 scf sf
/Helvetica-latin1 ff 0.560000 scf sf
0.100000 slw
[] 0 sd
[] 0 sd
0 slc
n 40.836000 8.085040 m 40.808419 10.144440 l s
[] 0 sd
0 slj
0 slc
n 40.803397 10.519407 m 40.560115 10.016104 l 40.808419 10.144440 l 41.060071 10.022799 l ef
n 40.803397 10.519407 m 40.560115 10.016104 l 40.808419 10.144440 l 41.060071 10.022799 l cp s
1.000000 1.000000 0.678431 srgb
n 52.947500 4.920770 m 52.947500 8.137437 l 64.945000 8.137437 l 64.945000 4.920770 l f
0.100000 slw
[] 0 sd
[] 0 sd
0 slj
0.792157 0.792157 0.000000 srgb
n 52.947500 4.920770 m 52.947500 8.137437 l 64.945000 8.137437 l 64.945000 4.920770 l cp s
/Helvetica-latin1 ff 0.740833 scf sf
0.000000 0.000000 0.000000 srgb
(Top surface grid) dup sw 2 div 58.946250 ex sub 6.575770 m
 gs 1 -1 sc sh gr
/Helvetica-latin1 ff 0.560000 scf sf
/Helvetica-latin1 ff 0.560000 scf sf
/Helvetica-latin1 ff 0.560000 scf sf
0.100000 slw
[] 0 sd
[] 0 sd
0 slc
0 slj
0.100000 slw
0 slc
0 slj
[] 0 sd
0.784314 1.000000 0.784314 srgb
n 54.854546 10.647900 m 63.016331 10.647900 l 64.143239 10.647900 65.056778 11.559431 65.056778 12.683863 c 65.056778 13.808295 64.143239 14.719826 63.016331 14.719826 c 54.854546 14.719826 l 53.727638 14.719826 52.814100 13.808295 52.814100 12.683863 c 52.814100 11.559431 53.727638 10.647900 54.854546 10.647900 c ef
0.000000 0.501961 0.000000 srgb
n 54.854546 10.647900 m 63.016331 10.647900 l 64.143239 10.647900 65.056778 11.559431 65.056778 12.683863 c 65.056778 13.808295 64.143239 14.719826 63.016331 14.719826 c 54.854546 14.719826 l 53.727638 14.719826 52.814100 13.808295 52.814100 12.683863 c 52.814100 11.559431 53.727638 10.647900 54.854546 10.647900 c s
/Helvetica-latin1 ff 0.740833 scf sf
0.000000 0.000000 0.000000 srgb
(Spill-point analysis) dup sw 2 div 58.935439 ex sub 12.736779 m
 gs 1 -1 sc sh gr
1.000000 1.000000 0.678431 srgb
n 52.716600 16.771100 m 52.716600 21.046100 l 65.084100 21.046100 l 65.084100 16.771100 l f
0.100000 slw
[] 0 sd
[] 0 sd
0 slj
0.792157 0.792157 0.000000 srgb
n 52.716600 16.771100 m 52.716600 21.046100 l 65.084100 21.046100 l 65.084100 16.771100 l cp s
/Helvetica-latin1 ff 0.740833 scf sf
0.000000 0.000000 0.000000 srgb
(Top surface grid with) dup sw 2 div 58.900350 ex sub 17.896933 m
 gs 1 -1 sc sh gr
(traps, spill points,) dup sw 2 div 58.900350 ex sub 18.955267 m
 gs 1 -1 sc sh gr
(spill paths) dup sw 2 div 58.900350 ex sub 20.013600 m
 gs 1 -1 sc sh gr
/Helvetica-latin1 ff 0.560000 scf sf
0.100000 slw
[] 0 sd
[] 0 sd
0 slj
0 slc
n 46.923178 13.327033 m 49.910154 13.327033 l 49.910154 6.529103 l 52.410327 6.529103 l s
[] 0 sd
0 slj
0 slc
n 52.785327 6.529103 m 52.285327 6.779103 l 52.410327 6.529103 l 52.285327 6.279103 l ef
n 52.785327 6.529103 m 52.285327 6.779103 l 52.410327 6.529103 l 52.285327 6.279103 l cp s
0.100000 slw
[] 0 sd
[] 0 sd
0 slc
n 58.946200 8.137440 m 58.937494 10.161101 l s
[] 0 sd
0 slj
0 slc
n 58.935881 10.536098 m 58.688034 10.035027 l 58.937494 10.161101 l 59.188030 10.037178 l ef
n 58.935881 10.536098 m 58.688034 10.035027 l 58.937494 10.161101 l 59.188030 10.037178 l cp s
0.100000 slw
[] 0 sd
[] 0 sd
0 slc
n 58.923681 14.769666 m 58.915293 16.257736 l s
[] 0 sd
0 slj
0 slc
n 58.913179 16.632730 m 58.666001 16.131328 l 58.915293 16.257736 l 59.165994 16.134147 l ef
n 58.913179 16.632730 m 58.666001 16.131328 l 58.915293 16.257736 l 59.165994 16.134147 l cp s
1.000000 1.000000 0.678431 srgb
n 71.012400 17.758800 m 71.012400 20.975467 l 83.009900 20.975467 l 83.009900 17.758800 l f
0.100000 slw
[] 0 sd
[] 0 sd
0 slj
0.792157 0.792157 0.000000 srgb
n 71.012400 17.758800 m 71.012400 20.975467 l 83.009900 20.975467 l 83.009900 17.758800 l cp s
/Helvetica-latin1 ff 0.740833 scf sf
0.000000 0.000000 0.000000 srgb
(Fluid object) dup sw 2 div 77.011150 ex sub 19.413800 m
 gs 1 -1 sc sh gr
0.100000 slw
[] 0 sd
[] 0 sd
0 slc
0 slj
0.100000 slw
0 slc
0 slj
[] 0 sd
0.784314 1.000000 0.784314 srgb
n 73.011146 10.697900 m 81.172931 10.697900 l 82.299839 10.697900 83.213378 11.609431 83.213378 12.733863 c 83.213378 13.858295 82.299839 14.769826 81.172931 14.769826 c 73.011146 14.769826 l 71.884238 14.769826 70.970700 13.858295 70.970700 12.733863 c 70.970700 11.609431 71.884238 10.697900 73.011146 10.697900 c ef
0.000000 0.501961 0.000000 srgb
n 73.011146 10.697900 m 81.172931 10.697900 l 82.299839 10.697900 83.213378 11.609431 83.213378 12.733863 c 83.213378 13.858295 82.299839 14.769826 81.172931 14.769826 c 73.011146 14.769826 l 71.884238 14.769826 70.970700 13.858295 70.970700 12.733863 c 70.970700 11.609431 71.884238 10.697900 73.011146 10.697900 c s
/Helvetica-latin1 ff 0.740833 scf sf
0.000000 0.000000 0.000000 srgb
(Capacity) dup sw 2 div 77.092039 ex sub 12.257613 m
 gs 1 -1 sc sh gr
(computation) dup sw 2 div 77.092039 ex sub 13.315946 m
 gs 1 -1 sc sh gr
1.000000 1.000000 0.678431 srgb
n 71.195800 4.920770 m 71.195800 8.137437 l 83.193300 8.137437 l 83.193300 4.920770 l f
0.100000 slw
[] 0 sd
[] 0 sd
0 slj
0.792157 0.792157 0.000000 srgb
n 71.195800 4.920770 m 71.195800 8.137437 l 83.193300 8.137437 l 83.193300 4.920770 l cp s
/Helvetica-latin1 ff 0.740833 scf sf
0.000000 0.000000 0.000000 srgb
(Capacity estimate) dup sw 2 div 77.194550 ex sub 6.575770 m
 gs 1 -1 sc sh gr
0.100000 slw
[] 0 sd
[] 0 sd
0 slj
0 slc
n 65.084100 17.839850 m 68.027400 17.839850 l 68.027400 12.733863 l 70.483897 12.733863 l s
[] 0 sd
0 slj
0 slc
n 70.858897 12.733863 m 70.358897 12.983863 l 70.483897 12.733863 l 70.358897 12.483863 l ef
n 70.858897 12.733863 m 70.358897 12.983863 l 70.483897 12.733863 l 70.358897 12.483863 l cp s
0.100000 slw
[] 0 sd
[] 0 sd
0 slc
n 77.011200 17.758800 m 77.050647 15.306762 l s
[] 0 sd
0 slj
0 slc
n 77.056679 14.931810 m 77.298604 15.435767 l 77.050647 15.306762 l 76.798669 15.427724 l ef
n 77.056679 14.931810 m 77.298604 15.435767 l 77.050647 15.306762 l 76.798669 15.427724 l cp s
0.100000 slw
[] 0 sd
[] 0 sd
0 slc
n 77.126507 10.647558 m 77.159116 8.673826 l s
[] 0 sd
0 slj
0 slc
n 77.165311 8.298877 m 77.407017 8.802939 l 77.159116 8.673826 l 76.907085 8.794679 l ef
n 77.165311 8.298877 m 77.407017 8.802939 l 77.159116 8.673826 l 76.907085 8.794679 l cp s
1.000000 1.000000 0.678431 srgb
n 52.901600 36.649100 m 52.901600 39.865767 l 64.942276 39.865767 l 64.942276 36.649100 l f
0.100000 slw
[] 0 sd
[] 0 sd
0 slj
0.792157 0.792157 0.000000 srgb
n 52.901600 36.649100 m 52.901600 39.865767 l 64.942276 39.865767 l 64.942276 36.649100 l cp s
/Helvetica-latin1 ff 0.740833 scf sf
0.000000 0.000000 0.000000 srgb
(Well positions,) dup sw 2 div 58.921938 ex sub 37.774933 m
 gs 1 -1 sc sh gr
(injection rates) dup sw 2 div 58.921938 ex sub 38.833267 m
 gs 1 -1 sc sh gr
0.100000 slw
[] 0 sd
[] 0 sd
0 slc
0 slj
0.100000 slw
0 slc
0 slj
[] 0 sd
0.784314 1.000000 0.784314 srgb
n 53.581675 41.325800 m 57.769175 41.325800 l 58.347348 41.325800 58.816050 42.237331 58.816050 43.361763 c 58.816050 44.486195 58.347348 45.397726 57.769175 45.397726 c 53.581675 45.397726 l 53.003502 45.397726 52.534800 44.486195 52.534800 43.361763 c 52.534800 42.237331 53.003502 41.325800 53.581675 41.325800 c ef
0.000000 0.501961 0.000000 srgb
n 53.581675 41.325800 m 57.769175 41.325800 l 58.347348 41.325800 58.816050 42.237331 58.816050 43.361763 c 58.816050 44.486195 58.347348 45.397726 57.769175 45.397726 c 53.581675 45.397726 l 53.003502 45.397726 52.534800 44.486195 52.534800 43.361763 c 52.534800 42.237331 53.003502 41.325800 53.581675 41.325800 c s
/Helvetica-latin1 ff 0.740833 scf sf
0.000000 0.000000 0.000000 srgb
(Greedy) dup sw 2 div 55.675425 ex sub 42.885513 m
 gs 1 -1 sc sh gr
(algorithm) dup sw 2 div 55.675425 ex sub 43.943846 m
 gs 1 -1 sc sh gr
0.100000 slw
[] 0 sd
[] 0 sd
0 slc
0 slj
0.100000 slw
0 slc
0 slj
[] 0 sd
0.784314 1.000000 0.784314 srgb
n 60.275775 41.371600 m 64.463275 41.371600 l 65.041448 41.371600 65.510150 42.283131 65.510150 43.407563 c 65.510150 44.531995 65.041448 45.443526 64.463275 45.443526 c 60.275775 45.443526 l 59.697602 45.443526 59.228900 44.531995 59.228900 43.407563 c 59.228900 42.283131 59.697602 41.371600 60.275775 41.371600 c ef
0.000000 0.501961 0.000000 srgb
n 60.275775 41.371600 m 64.463275 41.371600 l 65.041448 41.371600 65.510150 42.283131 65.510150 43.407563 c 65.510150 44.531995 65.041448 45.443526 64.463275 45.443526 c 60.275775 45.443526 l 59.697602 45.443526 59.228900 44.531995 59.228900 43.407563 c 59.228900 42.283131 59.697602 41.371600 60.275775 41.371600 c s
/Helvetica-latin1 ff 0.740833 scf sf
0.000000 0.000000 0.000000 srgb
(User) dup sw 2 div 62.369525 ex sub 43.460479 m
 gs 1 -1 sc sh gr
0.100000 slw
[] 0 sd
[] 0 sd
0 slc
0 slj
0.100000 slw
0 slc
0 slj
[] 0 sd
0.784314 1.000000 0.784314 srgb
n 55.021276 31.422100 m 62.994782 31.422100 l 64.095694 31.422100 64.988159 32.333631 64.988159 33.458063 c 64.988159 34.582495 64.095694 35.494026 62.994782 35.494026 c 55.021276 35.494026 l 53.920365 35.494026 53.027900 34.582495 53.027900 33.458063 c 53.027900 32.333631 53.920365 31.422100 55.021276 31.422100 c ef
0.000000 0.501961 0.000000 srgb
n 55.021276 31.422100 m 62.994782 31.422100 l 64.095694 31.422100 64.988159 32.333631 64.988159 33.458063 c 64.988159 34.582495 64.095694 35.494026 62.994782 35.494026 c 55.021276 35.494026 l 53.920365 35.494026 53.027900 34.582495 53.027900 33.458063 c 53.027900 32.333631 53.920365 31.422100 55.021276 31.422100 c s
/Helvetica-latin1 ff 0.740833 scf sf
0.000000 0.000000 0.000000 srgb
(VE-simulator) dup sw 2 div 59.008029 ex sub 33.510979 m
 gs 1 -1 sc sh gr
0.100000 slw
[] 0 sd
[] 0 sd
0 slj
0 slc
n 58.900358 21.096117 m 58.900369 24.535900 l 49.582500 24.535900 l 49.582500 33.458086 l 52.541676 33.458079 l s
[] 0 sd
0 slj
0 slc
n 52.916676 33.458078 m 52.416676 33.708079 l 52.541676 33.458079 l 52.416675 33.208079 l ef
n 52.916676 33.458078 m 52.416676 33.708079 l 52.541676 33.458079 l 52.416675 33.208079 l cp s
0.100000 slw
[] 0 sd
[] 0 sd
0 slj
0 slc
n 71.012400 19.367133 m 68.000279 19.367133 l 68.000279 33.458063 l 65.474962 33.458063 l s
[] 0 sd
0 slj
0 slc
n 65.099962 33.458063 m 65.599962 33.208063 l 65.474962 33.458063 l 65.599962 33.708063 l ef
n 65.099962 33.458063 m 65.599962 33.208063 l 65.474962 33.458063 l 65.599962 33.708063 l cp s
0.100000 slw
[] 0 sd
[] 0 sd
0 slj
0 slc
n 49.628400 33.339100 m 49.582500 33.339100 l 49.582500 43.361730 l 52.047515 43.361744 l s
[] 0 sd
0 slj
0 slc
n 52.422515 43.361746 m 51.922514 43.611743 l 52.047515 43.361744 l 51.922516 43.111743 l ef
n 52.422515 43.361746 m 51.922514 43.611743 l 52.047515 43.361744 l 51.922516 43.111743 l cp s
0.100000 slw
[] 0 sd
[] 0 sd
0 slc
n 55.816350 41.277440 m 55.878961 40.351395 l s
[] 0 sd
0 slj
0 slc
n 55.904258 39.977249 m 56.119960 40.492974 l 55.878961 40.351395 l 55.621099 40.459245 l ef
n 55.904258 39.977249 m 56.119960 40.492974 l 55.878961 40.351395 l 55.621099 40.459245 l cp s
0.100000 slw
[] 0 sd
[] 0 sd
0 slc
n 62.323700 41.188200 m 62.352597 40.315137 l s
[] 0 sd
0 slj
0 slc
n 62.365002 39.940342 m 62.598325 40.448339 l 62.352597 40.315137 l 62.098598 40.431799 l ef
n 62.365002 39.940342 m 62.598325 40.448339 l 62.352597 40.315137 l 62.098598 40.431799 l cp s
0.100000 slw
[] 0 sd
[] 0 sd
0 slc
n 58.922000 36.649100 m 58.971853 35.979560 l s
[] 0 sd
0 slj
0 slc
n 58.999698 35.605595 m 59.211881 36.122778 l 58.971853 35.979560 l 58.713262 36.085651 l ef
n 58.999698 35.605595 m 59.211881 36.122778 l 58.971853 35.979560 l 58.713262 36.085651 l cp s
1.000000 1.000000 0.678431 srgb
n 52.901600 27.020500 m 52.901600 30.237167 l 64.942276 30.237167 l 64.942276 27.020500 l f
0.100000 slw
[] 0 sd
[] 0 sd
0 slj
0.792157 0.792157 0.000000 srgb
n 52.901600 27.020500 m 52.901600 30.237167 l 64.942276 30.237167 l 64.942276 27.020500 l cp s
/Helvetica-latin1 ff 0.740833 scf sf
0.000000 0.000000 0.000000 srgb
(Simulation outcome) dup sw 2 div 58.921938 ex sub 28.146333 m
 gs 1 -1 sc sh gr
(\(states and inventory\)) dup sw 2 div 58.921938 ex sub 29.204667 m
 gs 1 -1 sc sh gr
0.100000 slw
[] 0 sd
[] 0 sd
0 slc
n 59.008000 31.422100 m 58.986684 30.730263 l s
[] 0 sd
0 slj
0 slc
n 58.975136 30.355441 m 59.240415 30.847505 l 58.986684 30.730263 l 58.740652 30.862903 l ef
n 58.975136 30.355441 m 59.240415 30.847505 l 58.986684 30.730263 l 58.740652 30.862903 l cp s
0.100000 slw
[] 0 sd
[] 0 sd
0 slc
0 slj
0.100000 slw
0 slc
0 slj
[] 0 sd
0.784314 1.000000 0.784314 srgb
n 72.620993 30.917800 m 80.960964 30.917800 l 82.112474 30.917800 83.045957 31.829331 83.045957 32.953763 c 83.045957 34.078195 82.112474 34.989726 80.960964 34.989726 c 72.620993 34.989726 l 71.469483 34.989726 70.536000 34.078195 70.536000 32.953763 c 70.536000 31.829331 71.469483 30.917800 72.620993 30.917800 c ef
0.000000 0.501961 0.000000 srgb
n 72.620993 30.917800 m 80.960964 30.917800 l 82.112474 30.917800 83.045957 31.829331 83.045957 32.953763 c 83.045957 34.078195 82.112474 34.989726 80.960964 34.989726 c 72.620993 34.989726 l 71.469483 34.989726 70.536000 34.078195 70.536000 32.953763 c 70.536000 31.829331 71.469483 30.917800 72.620993 30.917800 c s
/Helvetica-latin1 ff 0.740833 scf sf
0.000000 0.000000 0.000000 srgb
(Non-linear) dup sw 2 div 76.790978 ex sub 32.477513 m
 gs 1 -1 sc sh gr
(optimization) dup sw 2 div 76.790978 ex sub 33.535846 m
 gs 1 -1 sc sh gr
1.000000 1.000000 0.678431 srgb
n 70.737300 38.849900 m 70.737300 42.066567 l 82.777976 42.066567 l 82.777976 38.849900 l f
0.100000 slw
[] 0 sd
[] 0 sd
0 slj
0.792157 0.792157 0.000000 srgb
n 70.737300 38.849900 m 70.737300 42.066567 l 82.777976 42.066567 l 82.777976 38.849900 l cp s
/Helvetica-latin1 ff 0.740833 scf sf
0.000000 0.000000 0.000000 srgb
(Optimized simulation) dup sw 2 div 76.757638 ex sub 39.975733 m
 gs 1 -1 sc sh gr
(outcome) dup sw 2 div 76.757638 ex sub 41.034067 m
 gs 1 -1 sc sh gr
0.100000 slw
[] 0 sd
[] 0 sd
0 slc
n 76.791000 34.989700 m 76.770726 38.312922 l s
[] 0 sd
0 slj
0 slc
n 76.768438 38.687915 m 76.521493 38.186399 l 76.770726 38.312922 l 77.021484 38.189449 l ef
n 76.768438 38.687915 m 76.521493 38.186399 l 76.770726 38.312922 l 77.021484 38.189449 l cp s
0.100000 slw
[] 0 sd
[] 0 sd
0 slj
0 slc
n 64.942276 28.628833 m 76.790978 28.628833 l 76.790978 30.430997 l s
[] 0 sd
0 slj
0 slc
n 76.790978 30.805997 m 76.540978 30.305997 l 76.790978 30.430997 l 77.040978 30.305997 l ef
n 76.790978 30.805997 m 76.540978 30.305997 l 76.790978 30.430997 l 77.040978 30.305997 l cp s
0.100000 slw
[] 0 sd
[] 0 sd
0 slj
0 slc
n 74.705986 34.989726 m 74.705986 38.257433 l 65.429080 38.257433 l s
[] 0 sd
0 slj
0 slc
n 65.054080 38.257433 m 65.554080 38.007433 l 65.429080 38.257433 l 65.554080 38.507433 l ef
n 65.054080 38.257433 m 65.554080 38.007433 l 65.429080 38.257433 l 65.554080 38.507433 l cp s
showpage
